%YAML 1.1
%TAG !u! tag:unity3d.com,2011:
--- !u!114 &11400000
MonoBehaviour:
  m_ObjectHideFlags: 0
  m_CorrespondingSourceObject: {fileID: 0}
  m_PrefabInstance: {fileID: 0}
  m_PrefabAsset: {fileID: 0}
  m_GameObject: {fileID: 0}
  m_Enabled: 1
  m_EditorHideFlags: 0
  m_Script: {fileID: 11500000, guid: 6e2f43bd8acd9e848809a7274eeb819a, type: 3}
  m_Name: 13KingOfHearts
  m_EditorClassIdentifier: 
  m_suit: 2
  m_number: 13
  m_cardFrontImage: {fileID: 21300000, guid: 7a310aaba26b180419909c4d90017b38, type: 3}
